[{"userID":1,"first_name":"Abbot","last_name":"Dewane","email":"adewane0@vistaprint.com","password":"qNltkDA"},
{"userID":2,"first_name":"Laughton","last_name":"Brade","email":"lbrade1@drupal.org","password":"KdDSpx6ocxC"},
{"userID":3,"first_name":"Crawford","last_name":"Eades","email":"ceades2@altervista.org","password":"V89hHb"},
{"userID":4,"first_name":"Malva","last_name":"Abbatini","email":"mabbatini3@vimeo.com","password":"mwLdeZdeme"},
{"userID":5,"first_name":"Edmund","last_name":"Kort","email":"ekort4@unicef.org","password":"GOEYvYW"},
{"userID":6,"first_name":"Zoe","last_name":"Bernakiewicz","email":"zbernakiewicz5@marriott.com","password":"mQM10SNx7c"},
{"userID":7,"first_name":"Eddie","last_name":"Helbeck","email":"ehelbeck6@archive.org","password":"DaI6KiEYp"},
{"userID":8,"first_name":"Rayner","last_name":"O'Hartnett","email":"rohartnett7@paginegialle.it","password":"bf1pILOaoM"},
{"userID":9,"first_name":"Rosco","last_name":"Crowch","email":"rcrowch8@wisc.edu","password":"6gqCzu82LF"},
{"userID":10,"first_name":"Konstantine","last_name":"Heselwood","email":"kheselwood9@hao123.com","password":"D8o6tYCz"},
{"userID":11,"first_name":"Lin","last_name":"Parzis","email":"lparzisa@linkedin.com","password":"dQCLOw3H"},
{"userID":12,"first_name":"Rodie","last_name":"Moggan","email":"rmogganb@macromedia.com","password":"MeiizhpX"},
{"userID":13,"first_name":"Nesta","last_name":"Edward","email":"nedwardc@cbc.ca","password":"7KKLZGLLwQ"},
{"userID":14,"first_name":"Ofilia","last_name":"Arendt","email":"oarendtd@cargocollective.com","password":"nJc4VXRDO6x"},
{"userID":15,"first_name":"Joni","last_name":"Henmarsh","email":"jhenmarshe@indiegogo.com","password":"6cUfRUqNoG"},
{"userID":16,"first_name":"Isabeau","last_name":"Featley","email":"ifeatleyf@aol.com","password":"D2lROKCRzQT"},
{"userID":17,"first_name":"Nowell","last_name":"Huckster","email":"nhucksterg@google.cn","password":"JcnDgAqamK"},
{"userID":18,"first_name":"Bev","last_name":"Tuffell","email":"btuffellh@hc360.com","password":"IQy5HSvI73"},
{"userID":19,"first_name":"Saidee","last_name":"Marin","email":"smarini@indiegogo.com","password":"4O5CUw3WM"},
{"userID":20,"first_name":"Harlin","last_name":"Absolom","email":"habsolomj@domainmarket.com","password":"oXRuLKeqCX5"},
{"userID":21,"first_name":"Vivienne","last_name":"D'Agostini","email":"vdagostinik@woothemes.com","password":"RdMbbIlb"},
{"userID":22,"first_name":"Gard","last_name":"Suller","email":"gsullerl@themeforest.net","password":"HhMoOR6teP"},
{"userID":23,"first_name":"Sven","last_name":"Dyet","email":"sdyetm@xinhuanet.com","password":"Npw8uDnqJI7"},
{"userID":24,"first_name":"Avis","last_name":"Gettone","email":"agettonen@live.com","password":"LB6q8vWDI5Nc"},
{"userID":25,"first_name":"Phil","last_name":"Thrasher","email":"pthrashero@blogs.com","password":"Qr7MVURKuz"},
{"userID":26,"first_name":"Kathleen","last_name":"Alwin","email":"kalwinp@vkontakte.ru","password":"jcny8q"},
{"userID":27,"first_name":"Feodora","last_name":"Goulborne","email":"fgoulborneq@icio.us","password":"6Y1mB3BO"},
{"userID":28,"first_name":"Torre","last_name":"Bakhrushin","email":"tbakhrushinr@indiatimes.com","password":"zviwSzkJApm"},
{"userID":29,"first_name":"Hamilton","last_name":"Samways","email":"hsamwayss@chron.com","password":"wy9aWM1ri6K"},
{"userID":30,"first_name":"Meghan","last_name":"Gudgeon","email":"mgudgeont@xing.com","password":"1laj4CPDYlFB"},
{"userID":31,"first_name":"Amelita","last_name":"Jenney","email":"ajenneyu@google.com.br","password":"3fvmlW"},
{"userID":32,"first_name":"Freddie","last_name":"Bony","email":"fbonyv@lycos.com","password":"fIbp6038S"},
{"userID":33,"first_name":"Adrianne","last_name":"Leatt","email":"aleattw@va.gov","password":"FgBahFA0jE"},
{"userID":34,"first_name":"Willie","last_name":"Matches","email":"wmatchesx@google.ru","password":"KbIaBDHP"},
{"userID":35,"first_name":"Daryl","last_name":"Raffon","email":"draffony@miitbeian.gov.cn","password":"xX3b9uVH"},
{"userID":36,"first_name":"Malynda","last_name":"Bray","email":"mbrayz@hud.gov","password":"G48UWAL"},
{"userID":37,"first_name":"Dalli","last_name":"Whitham","email":"dwhitham10@theglobeandmail.com","password":"mirlwx"},
{"userID":38,"first_name":"Zandra","last_name":"Ziebart","email":"zziebart11@networkadvertising.org","password":"m9hfQCSgtVr"},
{"userID":39,"first_name":"Leon","last_name":"Wreath","email":"lwreath12@mediafire.com","password":"vUSkOreenBW"},
{"userID":40,"first_name":"Eugenius","last_name":"Arnaudot","email":"earnaudot13@google.pl","password":"G6lYD0x"},
{"userID":41,"first_name":"Gaultiero","last_name":"Simonin","email":"gsimonin14@linkedin.com","password":"24RmLOh5Az"},
{"userID":42,"first_name":"Eugenie","last_name":"Joist","email":"ejoist15@aol.com","password":"WujNBsok"},
{"userID":43,"first_name":"Glenna","last_name":"Stubbs","email":"gstubbs16@alibaba.com","password":"2Gejb2pmO"},
{"userID":44,"first_name":"Elliot","last_name":"Langtry","email":"elangtry17@ihg.com","password":"yYQiN5UcrF"},
{"userID":45,"first_name":"Muire","last_name":"Hutchens","email":"mhutchens18@blogger.com","password":"9CJh2R"},
{"userID":46,"first_name":"Bobbee","last_name":"Seczyk","email":"bseczyk19@eepurl.com","password":"lPSmSp"},
{"userID":47,"first_name":"Aube","last_name":"McCluin","email":"amccluin1a@xinhuanet.com","password":"T0LI7DkpU"},
{"userID":48,"first_name":"Giralda","last_name":"Fennick","email":"gfennick1b@1und1.de","password":"DjdNbSDRHif"},
{"userID":49,"first_name":"Letitia","last_name":"Choffin","email":"lchoffin1c@w3.org","password":"0FsJ8O"},
{"userID":50,"first_name":"Calhoun","last_name":"Bosley","email":"cbosley1d@thetimes.co.uk","password":"37inrbQ"},
{"userID":51,"first_name":"Barbabra","last_name":"Perham","email":"bperham1e@lulu.com","password":"Zl4KSrXT"},
{"userID":52,"first_name":"Jamal","last_name":"Tart","email":"jtart1f@nifty.com","password":"cUkbld18At7"},
{"userID":53,"first_name":"Guy","last_name":"Filochov","email":"gfilochov1g@sourceforge.net","password":"vtw8kKZga9u"},
{"userID":54,"first_name":"Colas","last_name":"Feldstern","email":"cfeldstern1h@digg.com","password":"fwRYHaUjpu"},
{"userID":55,"first_name":"Renaud","last_name":"Collin","email":"rcollin1i@cornell.edu","password":"PH6vWGpQkx"},
{"userID":56,"first_name":"Ursula","last_name":"Lillecrop","email":"ulillecrop1j@cargocollective.com","password":"xfHfRnQtUQaA"},
{"userID":57,"first_name":"Benjy","last_name":"Carlin","email":"bcarlin1k@csmonitor.com","password":"4zM8797"},
{"userID":58,"first_name":"Avery","last_name":"Shortan","email":"ashortan1l@tamu.edu","password":"GPECtS"},
{"userID":59,"first_name":"Mildrid","last_name":"Mollnar","email":"mmollnar1m@reverbnation.com","password":"YZiDyS"},
{"userID":60,"first_name":"Loydie","last_name":"Lippiatt","email":"llippiatt1n@theguardian.com","password":"A6yspg6"},
{"userID":61,"first_name":"Ellwood","last_name":"O'Scollain","email":"eoscollain1o@state.gov","password":"qk5mX9a8rX"},
{"userID":62,"first_name":"Patrice","last_name":"Constance","email":"pconstance1p@whitehouse.gov","password":"gY4sbyY95Ir"},
{"userID":63,"first_name":"Ella","last_name":"Monni","email":"emonni1q@instagram.com","password":"KXhy8dg4b8Jd"},
{"userID":64,"first_name":"Carlina","last_name":"Swadling","email":"cswadling1r@uiuc.edu","password":"UPF2iyw"},
{"userID":65,"first_name":"Estell","last_name":"Meldon","email":"emeldon1s@elegantthemes.com","password":"H94rPYDf9br"},
{"userID":66,"first_name":"Adrien","last_name":"Dmitrievski","email":"admitrievski1t@hexun.com","password":"Yq1EgLR"},
{"userID":67,"first_name":"Mariya","last_name":"Falconer","email":"mfalconer1u@epa.gov","password":"m7GBL4"},
{"userID":68,"first_name":"Kessiah","last_name":"Caustick","email":"kcaustick1v@arstechnica.com","password":"oIQa4osvhT"},
{"userID":69,"first_name":"Brewer","last_name":"Ovett","email":"bovett1w@1und1.de","password":"XLC5Awc"},
{"userID":70,"first_name":"Bordy","last_name":"Feldmark","email":"bfeldmark1x@xinhuanet.com","password":"taSX2FszA"},
{"userID":71,"first_name":"Norma","last_name":"Smitham","email":"nsmitham1y@nature.com","password":"Ajy6kAI"},
{"userID":72,"first_name":"Sheilah","last_name":"Sans","email":"ssans1z@jimdo.com","password":"8WSYiD90MJH"},
{"userID":73,"first_name":"Samaria","last_name":"Raubenheimers","email":"sraubenheimers20@sina.com.cn","password":"1SWcZeWjWi"},
{"userID":74,"first_name":"Kinnie","last_name":"Havock","email":"khavock21@bbb.org","password":"QYlJwDCSJ0"},
{"userID":75,"first_name":"Kirstyn","last_name":"Petrowsky","email":"kpetrowsky22@nydailynews.com","password":"6DxP3vd"},
{"userID":76,"first_name":"Ddene","last_name":"Farfolomeev","email":"dfarfolomeev23@eventbrite.com","password":"REHubsip0X"},
{"userID":77,"first_name":"Germana","last_name":"Puckham","email":"gpuckham24@unicef.org","password":"CfyoGGd5u"},
{"userID":78,"first_name":"Barty","last_name":"Stilling","email":"bstilling25@over-blog.com","password":"r3urrqnf0D"},
{"userID":79,"first_name":"Harlene","last_name":"McElwee","email":"hmcelwee26@ocn.ne.jp","password":"Fcy30eB5"},
{"userID":80,"first_name":"Carmelita","last_name":"Chesterfield","email":"cchesterfield27@latimes.com","password":"kiTUvwq4rlt"},
{"userID":81,"first_name":"Redd","last_name":"Kike","email":"rkike28@chronoengine.com","password":"hqSypFompC"},
{"userID":82,"first_name":"Wrennie","last_name":"Spick","email":"wspick29@utexas.edu","password":"tTEb6gGf"},
{"userID":83,"first_name":"Moritz","last_name":"Critch","email":"mcritch2a@qq.com","password":"OT5zmCJGrUFw"},
{"userID":84,"first_name":"Tommy","last_name":"Chantillon","email":"tchantillon2b@wired.com","password":"SPD1N2F4Yp1"},
{"userID":85,"first_name":"Alyssa","last_name":"Savill","email":"asavill2c@stumbleupon.com","password":"W3FPMg6H"},
{"userID":86,"first_name":"Ursuline","last_name":"Sommer","email":"usommer2d@newyorker.com","password":"jswXEOAzDA2"},
{"userID":87,"first_name":"Filippo","last_name":"MacIlwrick","email":"fmacilwrick2e@examiner.com","password":"kkK6MyMASYe"},
{"userID":88,"first_name":"Gilberta","last_name":"Hessing","email":"ghessing2f@businesswire.com","password":"fUt7ftxZisS"},
{"userID":89,"first_name":"Giraldo","last_name":"Bowland","email":"gbowland2g@census.gov","password":"xvb40ZKWtL"},
{"userID":90,"first_name":"Yorker","last_name":"Bright","email":"ybright2h@dot.gov","password":"OAnzNYDMeU"},
{"userID":91,"first_name":"Paulina","last_name":"Lowle","email":"plowle2i@theatlantic.com","password":"P1V6QMzZIm"},
{"userID":92,"first_name":"Raffarty","last_name":"Freckleton","email":"rfreckleton2j@list-manage.com","password":"X2At8BWvK"},
{"userID":93,"first_name":"Diana","last_name":"Barrott","email":"dbarrott2k@wiley.com","password":"BQ6VAhZMqw"},
{"userID":94,"first_name":"Chrystal","last_name":"McIlwrath","email":"cmcilwrath2l@51.la","password":"2uJzKyH7AwA1"},
{"userID":95,"first_name":"Quillan","last_name":"Kretchmer","email":"qkretchmer2m@tiny.cc","password":"6n4OKV8OPDLh"},
{"userID":96,"first_name":"Domingo","last_name":"Beevis","email":"dbeevis2n@usnews.com","password":"ZvJb6HgKcPh"},
{"userID":97,"first_name":"Chrysa","last_name":"Hasnip","email":"chasnip2o@fc2.com","password":"t9RYoFDD"},
{"userID":98,"first_name":"Val","last_name":"Themann","email":"vthemann2p@unc.edu","password":"y8EoXqPFvZNJ"},
{"userID":99,"first_name":"Rycca","last_name":"Spick","email":"rspick2q@dion.ne.jp","password":"5FPaFdjrIn03"},
{"userID":100,"first_name":"Courtney","last_name":"Cathersides","email":"ccathersides2r@msn.com","password":"xmawoAf"}]